TUTORIAL 2 -Customized training database
…
From the fifth column onwards, the plant species names. Plant
species names do not necessarily have to be coded, they can be left in
full. Afterwards, abbreviation codes will be automatically created in
CEP names format: an abbreviation of species names according to the
Cornell Ecology Programs (CEP), which uses eight-letter abbreviations
for species. The CEP names code will be used to formulate the seed
mixture or donor grassland composition.

Table 1. Example of the structure of the
vegetation and topographical variables database to provide in
the function trainingDB. This database includes
703 vegetation surveys and 532 plant species

#> # A tibble: 532 × 703
#>    Cod_ril   elevation slope aspect `Nardus stricta` `Festuca rubra`
#>    <chr>         <dbl> <dbl>  <dbl>            <dbl>           <dbl>
#>  1 survey_01     1949. 23.9    244.             0               8.87
#>  2 survey_02     2589. 31.9    145.             5.17            0   
#>  3 survey_03     2634. 44.1    240.             0               0   
#>  4 survey_04     2593. 42.3    188.             0               0   
#>  5 survey_05     2195. 30.3    284.             0               2.59
#>  6 survey_06     2105.  8.99   185.             0              23.0 
#>  7 survey_07     2082. 31.0    235.             1.83            6.10
#>  8 survey_08     2078. 20.0    275.             0               8.33
#>  9 survey_09     1880.  5.24   170.             1.53           29.8 
#> 10 survey_10     2053. 40.6    176.             0               1.53
#> # … with 522 more rows, and 697 more variables: `Carex sempervirens` <dbl>,
#> #   `Festuca ovina aggr.` <dbl>, `Trifolium alpinum` <dbl>, `Poa alpina` <dbl>,
#> #   `Festuca paniculata` <dbl>, `Agrostis capillaris` <dbl>,
#> #   `Brachypodium rupestre` <dbl>, `Festuca violacea aggr.` <dbl>,
#> #   `Anthoxanthum odoratum aggr.` <dbl>, `Phleum rhaeticum` <dbl>,
#> #   `Plantago aggr. alpina/serpentina` <dbl>, `Helianthemum nummularium` <dbl>,
#> #   `Achillea millefolium aggr.` <dbl>, `Thymus serpyllum aggr.` <dbl>, …
…
