TUTORIAL 2 -Customized training database • ResNatSeed
…
From the fifth column onwards, the plant species names. Plant
species names do not necessarily have to be coded, they can be left in
full. Afterwards, abbreviation codes will be automatically created in
CEP names format: an abbreviation of species names according to the
Cornell Ecology Programs (CEP), which uses eight-letter abbreviations
for species. The CEP names code will be used to formulate the seed
mixture or donor grassland composition.

Table 1. Example of the structure of the
vegetation and topographical variables database to provide in
the function trainingDB. This database includes
703 vegetation surveys and 532 plant species

#> # A tibble: 532 × 703
#>    Cod_ril  eleva…¹ slope aspect Nardu…² Festu…³ Carex…⁴ Festu…⁵ Trifo…⁶ Poa a…⁷
#>    <chr>      <dbl> <dbl>  <dbl>   <dbl>   <dbl>   <dbl>   <dbl>   <dbl>   <dbl>
#>  1 survey_…   1949. 23.9    244.    0       8.87    4.84   1.61    0       0    
#>  2 survey_…   2589. 31.9    145.    5.17    0      12.9    0       0       4.31 
#>  3 survey_…   2634. 44.1    240.    0       0       2.82   0       0       1.41 
#>  4 survey_…   2593. 42.3    188.    0       0      18.3    0       0       0.962
#>  5 survey_…   2195. 30.3    284.    0       2.59    0      0       0       2.59 
#>  6 survey_…   2105.  8.99   185.    0      23.0     0      0       0      15.9  
#>  7 survey_…   2082. 31.0    235.    1.83    6.10    4.27   1.22    0.610   0    
#>  8 survey_…   2078. 20.0    275.    0       8.33    3.70   0       0       4.63 
#>  9 survey_…   1880.  5.24   170.    1.53   29.8     0      0       0      20.6  
#> 10 survey_…   2053. 40.6    176.    0       1.53    0      0.763   0       0    
#> # … with 522 more rows, 693 more variables: `Festuca paniculata` <dbl>,
#> #   `Agrostis capillaris` <dbl>, `Brachypodium rupestre` <dbl>,
#> #   `Festuca violacea aggr.` <dbl>, `Anthoxanthum odoratum aggr.` <dbl>,
#> #   `Phleum rhaeticum` <dbl>, `Plantago aggr. alpina/serpentina` <dbl>,
#> #   `Helianthemum nummularium` <dbl>, `Achillea millefolium aggr.` <dbl>,
#> #   `Thymus serpyllum aggr.` <dbl>, `Avenella flexuosa` <dbl>,
#> #   `Ranunculus montanus aggr.` <dbl>, `Sesleria caerulea` <dbl>, …
…
